SequenceMapper Vignette
…
This process has been largely automated, and can be completed like so:

library(dplyr)
# if you don't have this package, run install.packages("dplyr")

mapped_reads <- map_reads(reads_table = reads_table, 
  barcodes_table = barcodes_table, distance_threshold = 2)
#> [1] "Mapping reads to references... This may take some time. Go grab a coffee or something."

Now let’s see the number of reads that mapped to a particular barcode and the proportion of mapped reads that mapped to it:

mapped_reads %>% 
  group_by(mapped_barcodes) %>%
  summarize(Number_Mapped = n(), Proportion_Mapped = n()/nrow(.))
#> # A tibble: 488 x 3
#>    mapped_barcodes    Number_Mapped Proportion_Mapped
#>    <fct>                      <int>             <dbl>
#>  1 AAACAGAACGGATTTTTT            17          0.00254 
#>  2 AAACCTAACGGATTTTTT             5          0.000748
#>  3 AAACGGAAAGGATTTTTT            13          0.00194 
#>  4 AAACGGAACGAGTTTTTT            11          0.00164 
#>  5 AAACGGAACGCTTTTTTT            11          0.00164 
#>  6 AAACGGAACGGAAGTTTT            14          0.00209 
#>  7 AAACGGAACGGACTTTTT            10          0.00150 
#>  8 AAACGGAACGGATTAGTT             7          0.00105 
#>  9 AAACGGAACGGATTCTTT            11          0.00164 
#> 10 AAACGGAACGGATTTTAG            10          0.00150 
#> # … with 478 more rows
…
